<svg width="139" height="138" viewBox="0 0 139 138" fill="none" xmlns="http://www.w3.org/2000/svg">
<rect x="27.2881" y="39.308" width="101.825" height="54.0945" transform="rotate(30 27.2881 39.308)" fill="#F3F3F7"/>
<path d="M26.819 39.5643C29.7635 44.9493 57.2356 87.8895 58.4259 88.238C59.3781 88.5169 96.7984 89.577 115.389 90.0723" stroke="black" stroke-linecap="round"/>
<line x1="32.3461" y1="94.2058" x2="70.1109" y2="116.031" stroke="black"/>
</svg>
