<svg width="153" height="149" viewBox="0 0 153 149" fill="none" xmlns="http://www.w3.org/2000/svg">
<path d="M0 3.70697C0.374898 9.77396 0.83611 16.2809 0.83611 22.3562" stroke="#4410B3" stroke-width="2" stroke-linecap="round" stroke-linejoin="round"/>
<path d="M0 3.70692C3.14379 3.68223 6.89694 3.46592 10.0333 3.30151" stroke="#4410B3" stroke-width="2" stroke-linecap="round" stroke-linejoin="round"/>
<path d="M0.835938 12.6261C3.29946 12.3306 6.27066 12.2207 8.77899 12.2207" stroke="#4410B3" stroke-width="2" stroke-linecap="round" stroke-linejoin="round"/>
<path d="M0.835938 22.3562C4.89104 22.2078 8.50496 21.9368 12.5415 21.5453" stroke="#4410B3" stroke-width="2" stroke-linecap="round" stroke-linejoin="round"/>
<path d="M20.6844 21.0624L27 1.32812L31.9726 21.0624M19.5105 24.4348L18 21.0624H36.1266L34.9937 23.5917" stroke="#4410B2" stroke-width="2" stroke-linecap="round" stroke-linejoin="round"/>
<path d="M42 2.82843C42.1963 8.79559 42.2485 15.859 42.2485 21.8284" stroke="#4410B2" stroke-width="2" stroke-linecap="round" stroke-linejoin="round"/>
<path d="M54.4512 3.21881C54.916 9.02441 54.6184 15.8669 54.9998 21.6804" stroke="#4410B2" stroke-width="2" stroke-linecap="round" stroke-linejoin="round"/>
<path d="M42.6899 21.8281L54.4178 2.82812" stroke="#4410B2" stroke-width="2" stroke-linecap="round" stroke-linejoin="round"/>
<path d="M62 3.82812C62.1661 9.48122 62.2103 16.1729 62.2103 21.8281" stroke="#4410B2" stroke-width="2" stroke-linecap="round" stroke-linejoin="round"/>
<path d="M72.5356 4.19824C72.9289 9.69829 72.6772 16.1807 72.9999 21.6881" stroke="#4410B2" stroke-width="2" stroke-linecap="round" stroke-linejoin="round"/>
<path d="M62.3896 12.7079C66.0848 12.6122 68.8401 12.4289 72.5353 12.3379" stroke="#4410B2" stroke-width="2" stroke-linecap="round" stroke-linejoin="round"/>
<path d="M102 3.91724L102 21.754" stroke="#4410B3" stroke-width="2" stroke-linecap="round" stroke-linejoin="round"/>
<path d="M102 3.91723C104.777 3.91722 107.528 3.55053 109.539 4.30497C111.968 5.21664 113.62 7.90497 112.743 10.6862C111.459 14.7606 105.836 14.6224 102.397 14.3866" stroke="#4410B3" stroke-width="2" stroke-linecap="round" stroke-linejoin="round"/>
<path d="M140 21.754L140 3.91724H150" stroke="#4410B3" stroke-width="2" stroke-linecap="round" stroke-linejoin="round"/>
<path d="M125.219 4.36759C114.54 5.65051 116.399 22.2906 126.273 22.1407C139.18 21.9449 135.898 3.08467 125.219 4.36759Z" stroke="#4410B3" stroke-width="2" stroke-linecap="round" stroke-linejoin="round"/>
<path d="M86.2188 4.36759C75.5401 5.65051 77.3987 22.2906 87.2728 22.1407C100.18 21.9449 96.8975 3.08467 86.2188 4.36759Z" stroke="#4410B3" stroke-width="2" stroke-linecap="round" stroke-linejoin="round"/>
<path d="M26.5085 45.3281C25.9059 110.505 82.3614 134.665 123.107 136.549" stroke="#4410B3" stroke-width="2" stroke-linecap="round" stroke-linejoin="round"/>
<path d="M119.574 144.299C120.95 143.898 134.538 138.728 134.538 138.728C134.538 138.728 124.668 131.604 120.658 128.649" stroke="#4410B3" stroke-width="2" stroke-linecap="round" stroke-linejoin="round"/>
</svg>
