<svg width="306" height="169" viewBox="0 0 306 169" fill="none" xmlns="http://www.w3.org/2000/svg">
<path d="M1 146.879C1.3749 152.946 1.83611 159.453 1.83611 165.528" stroke="#4410B3" stroke-width="2" stroke-linecap="round" stroke-linejoin="round"/>
<path d="M1 146.879C4.14379 146.854 7.89694 146.638 11.0333 146.473" stroke="#4410B3" stroke-width="2" stroke-linecap="round" stroke-linejoin="round"/>
<path d="M1.83618 155.798C4.29971 155.502 7.2709 155.393 9.77923 155.393" stroke="#4410B3" stroke-width="2" stroke-linecap="round" stroke-linejoin="round"/>
<path d="M1.83618 165.528C5.89129 165.38 9.5052 165.109 13.5417 164.717" stroke="#4410B3" stroke-width="2" stroke-linecap="round" stroke-linejoin="round"/>
<path d="M21.6844 164.234L28 144.5L32.9726 164.234M20.5105 167.607L19 164.234H37.1266L35.9937 166.764" stroke="#4410B2" stroke-width="2" stroke-linecap="round" stroke-linejoin="round"/>
<path d="M43 146C43.1963 151.967 43.2485 159.031 43.2485 165" stroke="#4410B2" stroke-width="2" stroke-linecap="round" stroke-linejoin="round"/>
<path d="M55.4514 146.391C55.9162 152.196 55.6187 159.039 56.0001 164.852" stroke="#4410B2" stroke-width="2" stroke-linecap="round" stroke-linejoin="round"/>
<path d="M43.6897 165L55.4176 146" stroke="#4410B2" stroke-width="2" stroke-linecap="round" stroke-linejoin="round"/>
<path d="M63 147C63.1661 152.653 63.2103 159.345 63.2103 165" stroke="#4410B2" stroke-width="2" stroke-linecap="round" stroke-linejoin="round"/>
<path d="M73.5356 147.37C73.9289 152.87 73.6772 159.353 73.9999 164.86" stroke="#4410B2" stroke-width="2" stroke-linecap="round" stroke-linejoin="round"/>
<path d="M63.3899 155.88C67.085 155.784 69.8403 155.601 73.5356 155.51" stroke="#4410B2" stroke-width="2" stroke-linecap="round" stroke-linejoin="round"/>
<path d="M103 147.089L103 164.926" stroke="#4410B3" stroke-width="2" stroke-linecap="round" stroke-linejoin="round"/>
<path d="M103 147.089C105.777 147.089 108.528 146.722 110.539 147.477C112.968 148.389 114.62 151.077 113.743 153.858C112.459 157.932 106.836 157.794 103.397 157.558" stroke="#4410B3" stroke-width="2" stroke-linecap="round" stroke-linejoin="round"/>
<path d="M141 164.926L141 147.089H151" stroke="#4410B3" stroke-width="2" stroke-linecap="round" stroke-linejoin="round"/>
<path d="M126.219 147.539C115.54 148.822 117.399 165.462 127.273 165.313C140.18 165.117 136.898 146.257 126.219 147.539Z" stroke="#4410B3" stroke-width="2" stroke-linecap="round" stroke-linejoin="round"/>
<path d="M87.2188 147.539C76.5401 148.822 78.3987 165.462 88.2728 165.313C101.18 165.117 97.8975 146.257 87.2188 147.539Z" stroke="#4410B3" stroke-width="2" stroke-linecap="round" stroke-linejoin="round"/>
<path d="M81 124.5C109 16 213.5 1 282 16" stroke="#4410B3" stroke-width="2" stroke-linecap="round" stroke-linejoin="round"/>
<path d="M279.582 1.55927C281.688 2.83743 301.953 17.4684 301.953 17.4684C301.953 17.4684 282.392 24.9075 274.418 28.0305" stroke="#4410B3" stroke-width="2" stroke-linecap="round" stroke-linejoin="round"/>
</svg>
