<svg width="246" height="140" viewBox="0 0 246 140" fill="none" xmlns="http://www.w3.org/2000/svg">
<path d="M149 2C149.354 7.20374 149 19.728 149 19.728C149.163 20.34 156.325 19.728 160 19.728" stroke="#CBCFE2" stroke-width="2" stroke-linecap="round" stroke-linejoin="round"/>
<path d="M165 2C165.321 7.20374 165 19.728 165 19.728C165.148 20.34 171.659 19.728 175 19.728" stroke="#CBCFE2" stroke-width="2" stroke-linecap="round" stroke-linejoin="round"/>
<path d="M130.443 21.1856C130.443 21.1856 131.23 17.9977 132.234 14.2306M142.744 21.1803C142.744 21.1803 141.942 18.2773 140.889 14.7384M132.234 14.2306C133.682 8.79666 135.581 2.15754 136.217 2.14244C136.983 2.12452 139.242 9.2079 140.889 14.7384M132.234 14.2306L140.889 14.7384" stroke="#CBCFE2" stroke-width="2" stroke-linecap="round" stroke-linejoin="round"/>
<path d="M189 2C189.321 7.20374 189 19.728 189 19.728" stroke="#CBCFE2" stroke-width="2" stroke-linecap="round" stroke-linejoin="round"/>
<path d="M208 2C207.819 7.6531 207.771 14.3447 207.771 20" stroke="#CBCFE2" stroke-width="2" stroke-linecap="round" stroke-linejoin="round"/>
<path d="M196.506 2.37012C196.077 7.87016 196.352 14.3526 196 19.86" stroke="#CBCFE2" stroke-width="2" stroke-linecap="round" stroke-linejoin="round"/>
<path d="M207.363 20L196.537 2" stroke="#CBCFE2" stroke-width="2" stroke-linecap="round" stroke-linejoin="round"/>
<path d="M215 2.18262C215.411 8.32536 215 13.9119 215 20.063" stroke="#CBCFE2" stroke-width="2" stroke-linecap="round" stroke-linejoin="round"/>
<path d="M215 2.00229C218.447 1.9773 222.103 2.16877 225.542 2.0023" stroke="#CBCFE2" stroke-width="2" stroke-linecap="round" stroke-linejoin="round"/>
<path d="M215.458 10.6222C218.159 10.323 223.25 10.6223 223.25 10.6223" stroke="#CBCFE2" stroke-width="2" stroke-linecap="round" stroke-linejoin="round"/>
<path d="M235.931 2.06668C225.678 3.43327 227.463 21.1585 236.943 20.9989C249.336 20.7903 246.184 0.700092 235.931 2.06668Z" stroke="#CBCFE2" stroke-width="2" stroke-linecap="round" stroke-linejoin="round"/>
<path d="M170.163 41C157.795 81.4423 115.663 129.315 13.5905 129.316" stroke="#CBCFE2" stroke-width="2" stroke-linecap="round" stroke-linejoin="round"/>
<path d="M17.7856 136.448C16.3639 136.06 2.30062 130.988 2.30062 130.988C2.30062 130.988 12.322 123.486 16.392 120.376" stroke="#CBCFE2" stroke-width="2" stroke-linecap="round" stroke-linejoin="round"/>
</svg>
