<svg width="267" height="119" viewBox="0 0 267 119" fill="none" xmlns="http://www.w3.org/2000/svg">
<g clip-path="url(#clip0)">
<path d="M176.567 100C176.894 104.811 176.567 116.391 176.567 116.391C176.718 116.957 183.34 116.391 186.738 116.391" stroke="#CBCFE2" stroke-width="2" stroke-linecap="round" stroke-linejoin="round"/>
<path d="M191.36 100C191.658 104.811 191.36 116.391 191.36 116.391C191.497 116.957 197.517 116.391 200.606 116.391" stroke="#CBCFE2" stroke-width="2" stroke-linecap="round" stroke-linejoin="round"/>
<path d="M159.409 117.739C159.409 117.739 160.137 114.791 161.066 111.308M170.783 117.734C170.783 117.734 170.041 115.05 169.067 111.778M161.066 111.308C162.405 106.284 164.16 100.146 164.749 100.132C165.457 100.115 167.545 106.665 169.067 111.778M161.066 111.308L169.067 111.778" stroke="#CBCFE2" stroke-width="2" stroke-linecap="round" stroke-linejoin="round"/>
<path d="M213.551 100C213.848 104.811 213.551 116.391 213.551 116.391" stroke="#CBCFE2" stroke-width="2" stroke-linecap="round" stroke-linejoin="round"/>
<path d="M231.116 100C230.949 105.227 230.904 111.414 230.904 116.642" stroke="#CBCFE2" stroke-width="2" stroke-linecap="round" stroke-linejoin="round"/>
<path d="M220.491 100.342C220.095 105.427 220.348 111.421 220.023 116.513" stroke="#CBCFE2" stroke-width="2" stroke-linecap="round" stroke-linejoin="round"/>
<path d="M230.528 116.642L220.519 100" stroke="#CBCFE2" stroke-width="2" stroke-linecap="round" stroke-linejoin="round"/>
<path d="M237.589 100.169C237.969 105.848 237.589 111.014 237.589 116.701" stroke="#CBCFE2" stroke-width="2" stroke-linecap="round" stroke-linejoin="round"/>
<path d="M237.589 100.002C240.776 99.979 244.156 100.156 247.335 100.002" stroke="#CBCFE2" stroke-width="2" stroke-linecap="round" stroke-linejoin="round"/>
<path d="M238.013 107.973C240.51 107.696 245.217 107.973 245.217 107.973" stroke="#CBCFE2" stroke-width="2" stroke-linecap="round" stroke-linejoin="round"/>
<path d="M256.941 100.062C247.462 101.325 249.112 117.714 257.877 117.566C269.335 117.373 266.421 98.7981 256.941 100.062Z" stroke="#CBCFE2" stroke-width="2" stroke-linecap="round" stroke-linejoin="round"/>
<path d="M143.999 110.5C87 110.499 34 110.706 7.58148 12.1109" stroke="#CBCFE2" stroke-width="2" stroke-linecap="round" stroke-linejoin="round"/>
<path d="M1.77832 18.0088C1.78496 16.5352 3.04483 1.63822 3.04483 1.63822C3.04483 1.63822 12.8844 9.3766 16.9418 12.503" stroke="#CBCFE2" stroke-width="2" stroke-linecap="round" stroke-linejoin="round"/>
</g>
<defs>
<clipPath id="clip0">
<rect width="267" height="119" fill="white"/>
</clipPath>
</defs>
</svg>
