<svg width="52" height="17" viewBox="0 0 52 17" fill="none" xmlns="http://www.w3.org/2000/svg">
<rect x="0.783936" y="0.703613" width="50.688" height="15.36" rx="7.68" fill="#A9B7C3"/>
<path d="M9.73008 8.09488H10.3556C10.7486 8.08888 11.0576 7.98538 11.2826 7.78438C11.5076 7.58338 11.6201 7.31188 11.6201 6.96988C11.6201 6.20188 11.2376 5.81788 10.4726 5.81788C10.1126 5.81788 9.82458 5.92138 9.60858 6.12838C9.39558 6.33238 9.28908 6.60388 9.28908 6.94288H8.45658C8.45658 6.42388 8.64558 5.99338 9.02358 5.65138C9.40458 5.30638 9.88758 5.13388 10.4726 5.13388C11.0906 5.13388 11.5751 5.29738 11.9261 5.62438C12.2771 5.95138 12.4526 6.40588 12.4526 6.98788C12.4526 7.27288 12.3596 7.54888 12.1736 7.81588C11.9906 8.08288 11.7401 8.28238 11.4221 8.41438C11.7821 8.52838 12.0596 8.71738 12.2546 8.98138C12.4526 9.24538 12.5516 9.56788 12.5516 9.94888C12.5516 10.5369 12.3596 11.0034 11.9756 11.3484C11.5916 11.6934 11.0921 11.8659 10.4771 11.8659C9.86208 11.8659 9.36108 11.6994 8.97408 11.3664C8.59008 11.0334 8.39808 10.5939 8.39808 10.0479H9.23508C9.23508 10.3929 9.34758 10.6689 9.57258 10.8759C9.79758 11.0829 10.0991 11.1864 10.4771 11.1864C10.8791 11.1864 11.1866 11.0814 11.3996 10.8714C11.6126 10.6614 11.7191 10.3599 11.7191 9.96688C11.7191 9.58588 11.6021 9.29338 11.3681 9.08938C11.1341 8.88538 10.7966 8.78038 10.3556 8.77438H9.73008V8.09488ZM18.5191 11.7759C18.4711 11.6799 18.4321 11.5089 18.4021 11.2629C18.0151 11.6649 17.5531 11.8659 17.0161 11.8659C16.5361 11.8659 16.1416 11.7309 15.8326 11.4609C15.5266 11.1879 15.3736 10.8429 15.3736 10.4259C15.3736 9.91888 15.5656 9.52588 15.9496 9.24688C16.3366 8.96488 16.8796 8.82388 17.5786 8.82388H18.3886V8.44138C18.3886 8.15038 18.3016 7.91938 18.1276 7.74838C17.9536 7.57438 17.6971 7.48738 17.3581 7.48738C17.0611 7.48738 16.8121 7.56238 16.6111 7.71238C16.4101 7.86238 16.3096 8.04388 16.3096 8.25688H15.4726C15.4726 8.01388 15.5581 7.77988 15.7291 7.55488C15.9031 7.32688 16.1371 7.14688 16.4311 7.01488C16.7281 6.88288 17.0536 6.81688 17.4076 6.81688C17.9686 6.81688 18.4081 6.95788 18.7261 7.23988C19.0441 7.51888 19.2091 7.90438 19.2211 8.39638V10.6374C19.2211 11.0844 19.2781 11.4399 19.3921 11.7039V11.7759H18.5191ZM17.1376 11.1414C17.3986 11.1414 17.6461 11.0739 17.8801 10.9389C18.1141 10.8039 18.2836 10.6284 18.3886 10.4124V9.41338H17.7361C16.7161 9.41338 16.2061 9.71188 16.2061 10.3089C16.2061 10.5699 16.2931 10.7739 16.4671 10.9209C16.6411 11.0679 16.8646 11.1414 17.1376 11.1414ZM24.2321 11.7759H23.3996V7.59538H21.1586V11.7759H20.3216V6.90688H24.2321V11.7759ZM29.4052 9.39538C29.4052 10.1364 29.2357 10.7334 28.8967 11.1864C28.5577 11.6394 28.0987 11.8659 27.5197 11.8659C26.9287 11.8659 26.4637 11.6784 26.1247 11.3034V13.6479H25.2922V6.90688H26.0527L26.0932 7.44688C26.4322 7.02688 26.9032 6.81688 27.5062 6.81688C28.0912 6.81688 28.5532 7.03738 28.8922 7.47838C29.2342 7.91938 29.4052 8.53288 29.4052 9.31888V9.39538ZM28.5727 9.30088C28.5727 8.75188 28.4557 8.31838 28.2217 8.00038C27.9877 7.68238 27.6667 7.52338 27.2587 7.52338C26.7547 7.52338 26.3767 7.74688 26.1247 8.19388V10.5204C26.3737 10.9644 26.7547 11.1864 27.2677 11.1864C27.6667 11.1864 27.9832 11.0289 28.2172 10.7139C28.4542 10.3959 28.5727 9.92488 28.5727 9.30088ZM32.2112 11.8659C31.5512 11.8659 31.0142 11.6499 30.6002 11.2179C30.1862 10.7829 29.9792 10.2024 29.9792 9.47638V9.32338C29.9792 8.84038 30.0707 8.40988 30.2537 8.03188C30.4397 7.65088 30.6977 7.35388 31.0277 7.14088C31.3607 6.92488 31.7207 6.81688 32.1077 6.81688C32.7407 6.81688 33.2327 7.02538 33.5837 7.44238C33.9347 7.85938 34.1102 8.45638 34.1102 9.23338V9.57988H30.8117C30.8237 10.0599 30.9632 10.4484 31.2302 10.7454C31.5002 11.0394 31.8422 11.1864 32.2562 11.1864C32.5502 11.1864 32.7992 11.1264 33.0032 11.0064C33.2072 10.8864 33.3857 10.7274 33.5387 10.5294L34.0472 10.9254C33.6392 11.5524 33.0272 11.8659 32.2112 11.8659ZM32.1077 7.50088C31.7717 7.50088 31.4897 7.62388 31.2617 7.86988C31.0337 8.11288 30.8927 8.45488 30.8387 8.89588H33.2777V8.83288C33.2537 8.40988 33.1397 8.08288 32.9357 7.85188C32.7317 7.61788 32.4557 7.50088 32.1077 7.50088ZM38.7927 6.90688V11.7759H37.9557V7.59538H36.2997L36.2007 9.41788C36.1467 10.2549 36.0057 10.8534 35.7777 11.2134C35.5527 11.5734 35.1942 11.7609 34.7022 11.7759H34.3692V11.0424L34.6077 11.0244C34.8777 10.9944 35.0712 10.8384 35.1882 10.5564C35.3052 10.2744 35.3802 9.75238 35.4132 8.99038L35.5032 6.90688H38.7927ZM43.5742 6.90688V11.7759H42.7372V9.88138H41.4817L40.3342 11.7759H39.4342L40.6582 9.75538C40.3462 9.64138 40.1062 9.46588 39.9382 9.22888C39.7732 8.98888 39.6907 8.70988 39.6907 8.39188C39.6907 7.94788 39.8572 7.59088 40.1902 7.32088C40.5232 7.04788 40.9687 6.90988 41.5267 6.90688H43.5742ZM40.5277 8.40088C40.5277 8.63788 40.6087 8.82988 40.7707 8.97688C40.9327 9.12088 41.1472 9.19438 41.4142 9.19738H42.7372V7.58188H41.5402C41.2312 7.58188 40.9852 7.65838 40.8022 7.81138C40.6192 7.96138 40.5277 8.15788 40.5277 8.40088Z" fill="white"/>
</svg>
