<svg width="190" height="73" viewBox="0 0 190 73" fill="none" xmlns="http://www.w3.org/2000/svg">
<path d="M102.181 55.6079L95.8491 61.386L103.99 67.9177" stroke="#CBCFE2" stroke-width="1.5" stroke-linecap="round" stroke-linejoin="round"/>
<path d="M95.0439 55.6748C95.5756 59.6616 95.4823 63.7241 95.7076 67.7299" stroke="#CBCFE2" stroke-width="1.5" stroke-linecap="round" stroke-linejoin="round"/>
<path d="M121.92 67.9662C122.003 66.8427 123.222 55.1677 123.605 55.2776C124.475 55.2776 128.125 64.9017 128.554 64.8365C129.39 64.7093 131.045 55.5271 131.775 55.2776C132.14 55.1528 133.235 58.6794 134.612 67.9662" stroke="#CBCFE2" stroke-width="1.5" stroke-linecap="round" stroke-linejoin="round"/>
<path d="M138.749 68.3686C138.749 68.3686 139.328 66.099 140.065 63.417M147.767 68.3586C147.767 68.3586 147.181 66.2926 146.41 63.7742M140.065 63.417C141.13 59.5484 142.525 54.8218 142.992 54.8107C143.553 54.7976 145.206 59.8384 146.41 63.7742M140.065 63.417L146.41 63.7742" stroke="#CBCFE2" stroke-width="1.5" stroke-linecap="round" stroke-linejoin="round"/>
<path d="M152.25 55.2759C152.379 59.2619 152.413 63.9801 152.413 67.9676" stroke="#CBCFE2" stroke-width="1.5" stroke-linecap="round" stroke-linejoin="round"/>
<path d="M160.385 55.5366C160.688 59.4147 160.494 63.9854 160.743 67.8687" stroke="#CBCFE2" stroke-width="1.5" stroke-linecap="round" stroke-linejoin="round"/>
<path d="M152.551 61.5363C155.403 61.4688 157.531 61.3396 160.383 61.2754" stroke="#CBCFE2" stroke-width="1.5" stroke-linecap="round" stroke-linejoin="round"/>
<path d="M167.025 67.4182L171.589 54.1484L175.214 67.2263M166.227 69.743L165.077 67.4638L178.227 67.1557L176.716 69.7288" stroke="#CBCFE2" stroke-width="1.5" stroke-linecap="round" stroke-linejoin="round"/>
<path d="M111.417 55.3216C103.763 56.2881 105.095 68.8249 112.173 68.712C121.425 68.5644 119.072 54.355 111.417 55.3216Z" stroke="#CBCFE2" stroke-width="1.5" stroke-linecap="round" stroke-linejoin="round"/>
<path d="M60.9395 55.6475C61.0322 59.8091 61.1404 63.527 61.4863 67.6787" stroke="#CBCFE2" stroke-width="1.5" stroke-linecap="round" stroke-linejoin="round"/>
<path d="M60.9438 55.4694C62.2969 55.2711 67.2361 54.2788 67.5013 57.2867C67.7665 60.2947 61.2122 61.1149 61.2122 61.1149C63.6341 60.5336 69.6888 60.8413 69.6888 64.1226C69.6888 67.4038 65.9864 68.6416 61.4856 67.6773" stroke="#CBCFE2" stroke-width="1.5" stroke-linecap="round" stroke-linejoin="round"/>
<path d="M19.6146 55.1548L12.3516 61.1625L21.6897 67.9539" stroke="#CBCFE2" stroke-width="1.5" stroke-linecap="round" stroke-linejoin="round"/>
<path d="M11.4277 55.2251C12.0376 59.3703 11.9305 63.5944 12.189 67.7594" stroke="#CBCFE2" stroke-width="1.5" stroke-linecap="round" stroke-linejoin="round"/>
<path d="M39.2391 68.0657C39.2391 68.0657 42.9375 54.2635 43.7801 54.2435C44.7622 54.2205 48.8588 68.0456 48.8588 68.0456" stroke="#CBCFE2" stroke-width="1.5" stroke-linecap="round" stroke-linejoin="round"/>
<path d="M77.5062 55.2001C69.8066 56.1395 71.1467 68.3236 78.2662 68.2139C87.5726 68.0704 85.2058 54.2608 77.5062 55.2001Z" stroke="#CBCFE2" stroke-width="1.5" stroke-linecap="round" stroke-linejoin="round"/>
<path d="M29.0701 55.2001C21.3705 56.1395 22.7107 68.3236 29.8301 68.2139C39.1366 68.0704 36.7697 54.2608 29.0701 55.2001Z" stroke="#CBCFE2" stroke-width="1.5" stroke-linecap="round" stroke-linejoin="round"/>
<path d="M51.7031 61.5415C54.2662 61.658 54.3679 61.5876 56.9276 61.5415" stroke="#CBCFE2" stroke-width="1.5" stroke-linecap="round" stroke-linejoin="round"/>
<path d="M49.9988 39.0003C36.4984 33.9999 33.2467 20.5007 33.2466 8.94166" stroke="#CBCFE2" stroke-width="1.5" stroke-linecap="round" stroke-linejoin="round"/>
<path d="M28.3408 9.91064C28.7245 9.07349 33.2821 0.917757 33.2821 0.917757C33.2821 0.917757 36.8886 7.85965 38.3924 10.6854" stroke="#CBCFE2" stroke-width="1.5" stroke-linecap="round" stroke-linejoin="round"/>
</svg>
