<svg width="140" height="44" viewBox="0 0 140 44" fill="none" xmlns="http://www.w3.org/2000/svg">
<g clip-path="url(#clip0)">
<ellipse cx="18.6225" cy="10.3103" rx="2.57754" ry="2.58648" transform="rotate(90 18.6225 10.3103)" fill="#6829ED"/>
<ellipse cx="18.6225" cy="18.0429" rx="2.57754" ry="2.58648" transform="rotate(90 18.6225 18.0429)" fill="#6829ED"/>
<ellipse cx="18.6225" cy="2.57754" rx="2.57754" ry="2.58648" transform="rotate(90 18.6225 2.57754)" fill="#6829ED"/>
<ellipse cx="18.6225" cy="25.7751" rx="2.57754" ry="2.58648" transform="rotate(90 18.6225 25.7751)" fill="#6829ED"/>
<ellipse cx="18.7521" cy="33.5079" rx="2.57754" ry="2.58648" transform="rotate(90 18.7521 33.5079)" fill="#6829ED"/>
<ellipse cx="18.6225" cy="41.2404" rx="2.57754" ry="2.58648" transform="rotate(90 18.6225 41.2404)" fill="#6829ED"/>
<ellipse cx="26.6406" cy="6.44369" rx="2.57754" ry="2.58648" transform="rotate(90 26.6406 6.44369)" fill="#6829ED"/>
<ellipse cx="26.77" cy="14.1765" rx="2.57754" ry="2.58648" transform="rotate(90 26.77 14.1765)" fill="#6829ED"/>
<ellipse cx="26.6406" cy="21.909" rx="2.57754" ry="2.58648" transform="rotate(90 26.6406 21.909)" fill="#6829ED"/>
<ellipse cx="26.2561" cy="30.0249" rx="2.96068" ry="2.97096" transform="rotate(90 26.2561 30.0249)" fill="#FE753F"/>
<ellipse cx="26.6406" cy="37.3743" rx="2.57754" ry="2.58648" transform="rotate(90 26.6406 37.3743)" fill="#6829ED"/>
<ellipse cx="34.2744" cy="10.6935" rx="2.96068" ry="2.97096" transform="rotate(90 34.2744 10.6935)" fill="#FE753F"/>
<ellipse cx="34.6589" cy="18.0428" rx="2.57754" ry="2.58648" transform="rotate(90 34.6589 18.0428)" fill="#6829ED"/>
<ellipse cx="34.6589" cy="25.7751" rx="2.57754" ry="2.58648" transform="rotate(90 34.6589 25.7751)" fill="#6829ED"/>
<ellipse cx="34.6589" cy="33.5079" rx="2.57754" ry="2.58648" transform="rotate(90 34.6589 33.5079)" fill="#6829ED"/>
<ellipse rx="2.57754" ry="2.58648" transform="matrix(-4.37114e-08 1 1 4.37114e-08 10.6045 6.44369)" fill="#6829ED"/>
<ellipse rx="2.96068" ry="2.97096" transform="matrix(-4.37114e-08 1 1 4.37114e-08 10.989 14.5596)" fill="#FE753F"/>
<ellipse rx="2.57754" ry="2.58648" transform="matrix(-4.37114e-08 1 1 4.37114e-08 10.6045 21.909)" fill="#6829ED"/>
<ellipse rx="2.57754" ry="2.58648" transform="matrix(-4.37114e-08 1 1 4.37114e-08 10.6045 29.6417)" fill="#6829ED"/>
<ellipse rx="2.57754" ry="2.58648" transform="matrix(-4.37114e-08 1 1 4.37114e-08 10.6045 37.3743)" fill="#6829ED"/>
<ellipse rx="2.57754" ry="2.58648" transform="matrix(-4.37114e-08 1 1 4.37114e-08 2.58648 10.3103)" fill="#6829ED"/>
<ellipse rx="2.57754" ry="2.58648" transform="matrix(-4.37114e-08 1 1 4.37114e-08 2.58648 18.0429)" fill="#6829ED"/>
<ellipse rx="2.57754" ry="2.58648" transform="matrix(-4.37114e-08 1 1 4.37114e-08 2.58648 25.7751)" fill="#6829ED"/>
<ellipse rx="2.57754" ry="2.58648" transform="matrix(-4.37114e-08 1 1 4.37114e-08 2.58648 33.5079)" fill="#6829ED"/>
<path d="M56.0766 26.7126V14.6238H52.8203V29.6071H62.8659V26.7126H56.0766ZM69.6415 18.3483C66.364 18.3483 64.0867 20.6469 64.0867 24.116C64.0867 27.5852 66.364 29.8625 69.6415 29.8625C72.8978 29.8625 75.1751 27.5852 75.1751 24.116C75.1751 20.6469 72.8978 18.3483 69.6415 18.3483ZM69.6415 27.1808C68.1092 27.1808 67.194 25.9038 67.194 24.116C67.194 22.307 68.1092 21.03 69.6415 21.03C71.1526 21.03 72.0678 22.307 72.0678 24.116C72.0678 25.9038 71.1526 27.1808 69.6415 27.1808ZM83.4291 18.3483C81.8755 18.3483 80.7687 19.0932 80.2367 19.8807V18.6037H77.257V29.6071H80.3644V23.3073C80.3644 21.7962 81.3647 21.1364 82.3862 21.1364C83.5142 21.1364 84.2804 21.8175 84.2804 23.2647V29.6071H87.3878V22.5837C87.3878 19.5615 85.4936 18.3483 83.4291 18.3483ZM97.3201 18.6037V19.8381C96.8519 19.0507 95.809 18.3483 94.1915 18.3483C91.446 18.3483 89.3603 20.5405 89.3603 23.9032C89.3603 27.4149 91.4673 29.4368 94.1064 29.4368C95.66 29.4368 96.6178 28.8409 97.1924 28.0534V28.7983C97.1924 30.5861 96.3837 31.6077 94.8938 31.6077C93.5743 31.6077 93.0209 31.033 92.8081 30.3945H89.7646C89.9562 32.2249 91.595 34.0765 94.8726 34.0765C98.2566 34.0765 100.3 32.0546 100.3 28.8196V18.6037H97.3201ZM94.8726 26.819C93.3827 26.819 92.4676 25.5633 92.4676 23.9032C92.4676 22.2431 93.3827 20.9661 94.8726 20.9661C96.4049 20.9661 97.2563 22.2644 97.2563 23.8606V23.9458C97.2563 25.5633 96.3624 26.819 94.8726 26.819ZM109.181 18.3483C107.564 18.3483 106.521 19.0507 105.967 19.8807V18.6037H102.988V33.6721H106.095V28.5429C106.649 29.3091 107.691 29.8625 109.096 29.8625C111.799 29.8625 113.949 27.7341 113.949 24.116C113.949 20.4341 111.799 18.3483 109.181 18.3483ZM108.436 27.1808C106.989 27.1808 106.031 26.0102 106.031 24.1586V24.0735C106.031 22.2218 106.989 21.03 108.436 21.03C109.884 21.03 110.82 22.2431 110.82 24.116C110.82 25.9889 109.884 27.1808 108.436 27.1808ZM120.999 18.3483C117.722 18.3483 115.444 20.6469 115.444 24.116C115.444 27.5852 117.722 29.8625 120.999 29.8625C124.256 29.8625 126.533 27.5852 126.533 24.116C126.533 20.6469 124.256 18.3483 120.999 18.3483ZM120.999 27.1808C119.467 27.1808 118.552 25.9038 118.552 24.116C118.552 22.307 119.467 21.03 120.999 21.03C122.51 21.03 123.426 22.307 123.426 24.116C123.426 25.9038 122.51 27.1808 120.999 27.1808ZM131.722 14.1343H128.615V29.6071H131.722V14.1343ZM137.521 14.1343H134.414V29.6071H137.521V14.1343Z" fill="#1F2430"/>
</g>
<defs>
<clipPath id="clip0">
<rect width="139.038" height="43.8179" fill="white"/>
</clipPath>
</defs>
</svg>
