<svg width="262" height="300" viewBox="0 0 262 300" fill="none" xmlns="http://www.w3.org/2000/svg">
<rect x="79.5" y="299.5" width="79" height="111" transform="rotate(-180 79.5 299.5)" fill="white" stroke="black"/>
<path d="M67.9998 288L12.0004 288" stroke="black" stroke-linecap="round"/>
<path d="M67.9995 278L12.0002 278" stroke="black" stroke-linecap="round"/>
<path d="M67.9998 268L12.0004 268" stroke="black" stroke-linecap="round"/>
<path d="M67.9995 258L12.0002 258" stroke="black" stroke-linecap="round"/>
<path d="M67.9998 248L12.0004 248" stroke="black" stroke-linecap="round"/>
<path d="M12.0004 238L67.9998 238L67.9998 248L12.0004 248L12.0004 238Z" stroke="black" stroke-linecap="round"/>
<path d="M68 228L12.0007 228" stroke="black" stroke-linecap="round"/>
<path d="M67.9993 218L12 218" stroke="black" stroke-linecap="round"/>
<path d="M68 200L12.0007 200" stroke="#FE753F" stroke-linecap="round"/>
<rect x="105.5" y="272.5" width="79" height="111" transform="rotate(-180 105.5 272.5)" fill="white" stroke="black"/>
<path d="M93.9998 261L38.0004 261" stroke="black" stroke-linecap="round"/>
<path d="M93.9995 251L38.0002 251" stroke="black" stroke-linecap="round"/>
<path d="M93.9998 241L38.0004 241" stroke="black" stroke-linecap="round"/>
<path d="M93.9995 231L38.0002 231" stroke="black" stroke-linecap="round"/>
<path d="M93.9998 221L38.0004 221" stroke="black" stroke-linecap="round"/>
<path d="M93.9998 211L38.0004 211" stroke="black" stroke-linecap="round"/>
<path d="M94 201L38.0007 201" stroke="black" stroke-linecap="round"/>
<path d="M93.9993 191L38 191" stroke="black" stroke-linecap="round"/>
<path d="M94 173L38.0007 173" stroke="#FE753F" stroke-linecap="round"/>
<rect x="131.5" y="245.5" width="79" height="111" transform="rotate(-180 131.5 245.5)" fill="white" stroke="black"/>
<path d="M120 234L64.0004 234" stroke="black" stroke-linecap="round"/>
<path d="M120 224L64.0002 224" stroke="black" stroke-linecap="round"/>
<path d="M120 214L64.0004 214" stroke="black" stroke-linecap="round"/>
<path d="M120 204L64.0002 204" stroke="black" stroke-linecap="round"/>
<path d="M120 194L64.0004 194" stroke="black" stroke-linecap="round"/>
<path d="M64 164L119.999 164L119.999 194L64 194L64 164Z" stroke="black" stroke-linecap="round"/>
<path d="M120 146L64.0007 146" stroke="#FE753F" stroke-linecap="round"/>
<rect x="157.5" y="218.5" width="79" height="111" transform="rotate(-180 157.5 218.5)" fill="white" stroke="black"/>
<path d="M146 207L90.0004 207" stroke="black" stroke-linecap="round"/>
<path d="M146 197L90.0002 197" stroke="black" stroke-linecap="round"/>
<path d="M146 187L90.0004 187" stroke="black" stroke-linecap="round"/>
<path d="M146 177L90.0002 177" stroke="black" stroke-linecap="round"/>
<path d="M146 167L90.0004 167" stroke="black" stroke-linecap="round"/>
<path d="M146 157L90.0004 157" stroke="black" stroke-linecap="round"/>
<path d="M146 147L90.0007 147" stroke="black" stroke-linecap="round"/>
<path d="M145.999 137L90 137" stroke="black" stroke-linecap="round"/>
<path d="M146 119L90.0007 119" stroke="#FE753F" stroke-linecap="round"/>
<rect x="183.5" y="191.5" width="79" height="111" transform="rotate(-180 183.5 191.5)" fill="white" stroke="black"/>
<path d="M172 180L116 180" stroke="black" stroke-linecap="round"/>
<path d="M172 170L116 170" stroke="black" stroke-linecap="round"/>
<path d="M172 160L116 160" stroke="black" stroke-linecap="round"/>
<path d="M172 150L116 150" stroke="black" stroke-linecap="round"/>
<path d="M172 140L116 140" stroke="black" stroke-linecap="round"/>
<path d="M172 130L116 130" stroke="black" stroke-linecap="round"/>
<path d="M172 120L116.001 120" stroke="black" stroke-linecap="round"/>
<path d="M171.999 110L116 110" stroke="black" stroke-linecap="round"/>
<path d="M172 91.9999L116.001 91.9999" stroke="#FE753F" stroke-linecap="round"/>
<rect x="209.5" y="164.5" width="79" height="111" transform="rotate(-180 209.5 164.5)" fill="white" stroke="black"/>
<path d="M198 153L142 153" stroke="black" stroke-linecap="round"/>
<path d="M198 143L142 143" stroke="black" stroke-linecap="round"/>
<path d="M198 133L142 133" stroke="black" stroke-linecap="round"/>
<path d="M198 123L142 123" stroke="black" stroke-linecap="round"/>
<path d="M198 113L142 113" stroke="black" stroke-linecap="round"/>
<path d="M198 103L142 103" stroke="black" stroke-linecap="round"/>
<path d="M198 92.9999L142.001 92.9999" stroke="black" stroke-linecap="round"/>
<path d="M197.999 82.9999L142 82.9999" stroke="black" stroke-linecap="round"/>
<path d="M198 64.9999L142.001 64.9999" stroke="#FE753F" stroke-linecap="round"/>
<rect x="235.5" y="137.5" width="79" height="111" transform="rotate(-180 235.5 137.5)" fill="white" stroke="black"/>
<path d="M224 126L168 126" stroke="black" stroke-linecap="round"/>
<path d="M224 116L168 116" stroke="black" stroke-linecap="round"/>
<path d="M224 106L168 106" stroke="black" stroke-linecap="round"/>
<path d="M224 95.9999L168 95.9999" stroke="black" stroke-linecap="round"/>
<path d="M224 85.9999L168 85.9999" stroke="black" stroke-linecap="round"/>
<path d="M224 75.9999L168 75.9999" stroke="black" stroke-linecap="round"/>
<path d="M224 65.9999L168.001 65.9999" stroke="black" stroke-linecap="round"/>
<path d="M223.999 55.9999L168 55.9999" stroke="black" stroke-linecap="round"/>
<path d="M224 37.9999L168.001 37.9999" stroke="#FE753F" stroke-linecap="round"/>
<rect x="261.5" y="111.5" width="79" height="111" transform="rotate(-180 261.5 111.5)" fill="white" stroke="black"/>
<path d="M250 99.9999L194 99.9999" stroke="black" stroke-linecap="round"/>
<path d="M250 89.9999L194 89.9999" stroke="black" stroke-linecap="round"/>
<path d="M250 79.9999L194 79.9999" stroke="black" stroke-linecap="round"/>
<path d="M250 69.9999L194 69.9999" stroke="black" stroke-linecap="round"/>
<path d="M250 59.9999L194 59.9999" stroke="black" stroke-linecap="round"/>
<path d="M250 49.9999L194 49.9999" stroke="black" stroke-linecap="round"/>
<path d="M250 39.9999L194.001 39.9999" stroke="black" stroke-linecap="round"/>
<path d="M249.999 29.9999L194 29.9999" stroke="black" stroke-linecap="round"/>
<path d="M250 11.9999L194.001 11.9999" stroke="#FE753F" stroke-linecap="round"/>
</svg>
