<svg width="466" height="464" viewBox="0 0 466 464" fill="none" xmlns="http://www.w3.org/2000/svg">
<mask id="mask0" mask-type="alpha" maskUnits="userSpaceOnUse" x="0" y="279" width="466" height="228">
<rect x="0.394531" y="279.862" width="464.79" height="226.665" fill="#C4C4C4"/>
</mask>
<g mask="url(#mask0)">
<path d="M155.997 636.532L156.488 755.917C161.518 814.796 273.826 837.753 354.942 766.738L340.542 512.602C340.542 512.602 461.788 305.421 246.85 229.209C113.133 187.397 145.562 279.225 145.562 279.225C143.789 282.991 74.0448 282.356 72.3414 286.228C17.7037 410.422 0.301348 586.553 92.0703 632.54C151.336 662.864 240.709 591.73 240.709 591.73" fill="white"/>
<path d="M155.997 636.532L156.488 755.917C161.518 814.796 273.826 837.753 354.942 766.738L340.542 512.602C340.542 512.602 461.788 305.421 246.85 229.209C113.133 187.397 145.562 279.225 145.562 279.225C143.789 282.991 74.0448 282.356 72.3414 286.228C17.7037 410.422 0.301347 586.553 92.0703 632.54C151.336 662.864 240.709 591.73 240.709 591.73" stroke="#1E1E1C" stroke-miterlimit="10" stroke-linecap="round" stroke-linejoin="round"/>
<path d="M106.173 382.936C113.002 407.845 91.6613 473.627 80.0071 492.726C73.2117 507.311 82.9449 516.653 82.9449 516.653" stroke="#1E1E1C" stroke-miterlimit="10" stroke-linecap="round" stroke-linejoin="round"/>
<path d="M81.2174 406.066C83.2142 398.251 81.9427 391.145 78.3774 390.192C74.8122 389.24 70.3031 394.802 68.3063 402.616C66.3094 410.431 67.581 417.538 71.1463 418.49C74.7116 419.443 79.2206 413.88 81.2174 406.066Z" fill="#1E1E1C"/>
<path d="M172.402 412.611C174.399 404.797 173.128 397.69 169.562 396.737C165.997 395.785 161.488 401.348 159.491 409.162C157.495 416.976 158.766 424.083 162.331 425.036C165.896 425.988 170.405 420.425 172.402 412.611Z" fill="#1E1E1C"/>
<path d="M237.424 276.215C188.606 265.404 103.216 290.175 82.5283 246.117C56.9461 194.954 105.255 168.495 147.091 190.037C157.748 156.131 218.288 142.309 269.265 192.017C403.524 162.595 382.413 273.495 382.413 273.495C382.413 273.495 439.266 304.898 449.984 343.095C460.703 381.292 403.745 418.393 403.745 418.393C403.745 418.393 435.82 439.653 428.738 487.931C423.073 526.554 375.324 533.547 352.158 532.216C324.034 571.84 263.932 537.163 269.536 505.372C320.224 508.015 348.305 418.291 304.175 402.09C266.618 387.818 267.598 435.201 248.816 423.966C230.033 412.73 252.527 373.926 269.4 348.694C286.274 323.463 285.304 287.922 237.424 276.215Z" fill="#1F2430"/>
</g>
<path d="M398.805 289.143C398.805 291.149 397.756 293.17 395.621 295.187C393.487 297.203 390.311 299.173 386.176 301.063C377.908 304.843 365.913 308.259 351.051 311.132C321.336 316.878 280.263 320.435 234.88 320.435C189.497 320.435 148.424 316.878 118.709 311.132C103.847 308.259 91.8516 304.843 83.5838 301.063C79.4484 299.173 76.2729 297.203 74.1385 295.187C72.0041 293.17 70.9546 291.149 70.9546 289.143C70.9546 287.136 72.0041 285.116 74.1385 283.099C76.2729 281.082 79.4484 279.113 83.5838 277.223C91.8516 273.443 103.847 270.027 118.709 267.153C148.424 261.408 189.497 257.851 234.88 257.851C280.263 257.851 321.336 261.408 351.051 267.153C365.913 270.027 377.908 273.443 386.176 277.223C390.311 279.113 393.487 281.082 395.621 283.099C397.756 285.116 398.805 287.136 398.805 289.143Z" fill="#FE753F" stroke="#1F2430"/>
<mask id="mask1" mask-type="alpha" maskUnits="userSpaceOnUse" x="70" y="140" width="330" height="181">
<path d="M398.468 288.775C398.468 290.785 397.419 292.809 395.287 294.828C393.155 296.848 389.982 298.819 385.851 300.712C377.591 304.497 365.608 307.918 350.76 310.795C321.073 316.549 280.039 320.11 234.7 320.11C189.36 320.11 148.327 316.549 118.64 310.795C103.792 307.918 91.8087 304.497 83.5489 300.712C79.4176 298.819 76.2451 296.848 74.1128 294.828C71.9805 292.809 70.9316 290.785 70.9316 288.775C70.9316 280.013 71.8861 243.037 92.8261 208.265C113.741 173.534 154.64 140.925 234.7 140.925C322.739 140.925 363.616 173.549 382.532 208.246C399.673 239.686 398.843 272.917 398.529 285.507C398.496 286.835 398.468 287.933 398.468 288.775Z" fill="#D4D9EA" stroke="#1F2430"/>
</mask>
<g mask="url(#mask1)">
<rect x="283.686" y="299.175" width="79" height="111" transform="rotate(-135 283.686 299.175)" fill="white" stroke="black"/>
<path d="M283.686 282.911L244.089 243.314" stroke="black" stroke-linecap="round"/>
<path d="M290.757 275.84L251.16 236.243" stroke="black" stroke-linecap="round"/>
<path d="M297.828 268.769L258.231 229.172" stroke="black" stroke-linecap="round"/>
<path d="M304.899 261.698L265.302 222.101" stroke="black" stroke-linecap="round"/>
<path d="M311.97 254.627L272.373 215.03" stroke="black" stroke-linecap="round"/>
<path d="M319.042 247.556L279.444 207.959" stroke="black" stroke-linecap="round"/>
<path d="M326.113 240.485L286.515 200.888" stroke="black" stroke-linecap="round"/>
<path d="M333.183 233.414L293.586 193.816" stroke="black" stroke-linecap="round"/>
<path d="M345.912 220.686L306.314 181.089" stroke="#FE753F" stroke-linecap="round"/>
<rect x="240.599" y="371.812" width="79" height="111" transform="rotate(150 240.599 371.812)" fill="white" stroke="black"/>
<path d="M194.89 315.641L146.393 343.641" stroke="black" stroke-linecap="round"/>
<path d="M189.889 306.981L141.392 334.981" stroke="black" stroke-linecap="round"/>
<path d="M180.89 291.392L132.393 319.392" stroke="#FE753F" stroke-linecap="round"/>
</g>
<path d="M399.305 289.143C399.305 306.701 325.69 320.935 234.88 320.935C144.07 320.935 70.4546 306.701 70.4546 289.143" stroke="#1F2430"/>
<path d="M395.921 153.795C395.921 155.805 394.872 157.829 392.74 159.848C390.608 161.868 387.435 163.839 383.304 165.732C375.044 169.517 363.061 172.938 348.213 175.815C318.526 181.568 277.493 185.13 232.153 185.13C186.814 185.13 145.78 181.568 116.093 175.815C101.245 172.938 89.2618 169.517 81.0021 165.732C76.8707 163.839 73.6983 161.868 71.5659 159.848C69.4336 157.829 68.3848 155.805 68.3848 153.795C68.3848 151.785 69.4336 149.762 71.5659 147.742C73.6983 145.723 76.8707 143.751 81.0021 141.858C89.2618 138.074 101.245 134.653 116.093 131.775C145.78 126.022 186.814 122.46 232.153 122.46C277.493 122.46 318.526 126.022 348.213 131.775C363.061 134.653 375.044 138.074 383.304 141.858C387.435 143.751 390.608 145.723 392.74 147.742C394.872 149.762 395.921 151.785 395.921 153.795Z" fill="white" stroke="#1F2430"/>
<path d="M305.781 181.759L295.161 124.888C324.753 127.273 349.945 131.287 367.766 136.345C376.746 138.893 383.825 141.698 388.648 144.676C393.502 147.673 395.922 150.749 395.922 153.795C395.922 156.652 393.794 159.538 389.51 162.365C385.249 165.176 378.98 167.844 370.991 170.295C355.111 175.167 332.552 179.151 305.781 181.759Z" fill="#1F2430" stroke="#1F2430"/>
<mask id="mask2" mask-type="alpha" maskUnits="userSpaceOnUse" x="41" y="0" width="366" height="184">
<path d="M41.1436 0.987549L406.609 2.26095V135.968C409.155 204.094 82.529 195.817 41.1436 134.694V0.987549Z" fill="#C4C4C4"/>
</mask>
<g mask="url(#mask2)">
<path d="M246.85 95.5023C461.789 171.715 340.543 378.895 340.543 378.895L292.64 174.17C218.146 169.5 68.6096 159.286 69.1585 153.795C69.7951 147.428 75.4802 138.648 76.7989 137.241C76.7989 137.241 113.134 53.6904 246.85 95.5023Z" fill="white"/>
<path d="M340.84 378.239C340.84 378.239 462.086 171.058 247.148 94.8461C113.431 53.0342 76.7987 137.241 76.7987 137.241C75.48 138.648 69.7952 146.155 68.5218 153.795" stroke="#1F2430" stroke-miterlimit="10" stroke-linecap="round" stroke-linejoin="round"/>
<path d="M237.425 142.508C188.607 131.697 69.4355 170.757 48.7476 126.698C23.1654 75.5359 105.256 34.7881 147.092 56.3304C157.749 22.4247 218.289 8.60225 269.265 58.3103C403.524 28.8878 382.414 143.608 382.414 143.608C382.414 143.608 392.07 136.609 402.789 174.806C413.508 213.004 384.008 266.858 384.008 266.858C384.008 266.858 435.821 305.946 428.739 354.225C423.074 392.848 375.325 399.841 352.159 398.509C324.034 438.133 263.932 403.456 269.537 371.665C320.225 374.308 348.306 284.584 304.176 268.384C266.619 254.111 267.599 301.494 248.816 290.259C230.034 279.024 252.528 240.219 269.401 214.988C286.274 189.756 285.305 154.215 237.425 142.508Z" fill="#1F2430"/>
</g>
</svg>
